RAM/RAM_tb.vcd
$date
	Tue Feb 14 12:23:44 2023
$end
$version
	Icarus Verilog
$end
$timescale
	1ps
$end
$scope module test $end
$var wire 8 ! ReadData [7:0] $end
$var wire 1 " WriteReady $end
$var wire 1 # ReadReady $end
$var reg 4 $ ReadAddr [3:0] $end
$var reg 4 % WriteAddr [3:0] $end
$var reg 8 & WriteData [7:0] $end
$var reg 1 ' clk $end
$var reg 1 ( read $end
$var reg 1 ) reset $end
$var reg 1 * write $end
$scope module RAM $end
$var wire 4 + ReadAddr [3:0] $end
$var wire 4 , WriteAddr [3:0] $end
$var wire 8 - WriteData [7:0] $end
$var wire 1 ' clock $end
$var wire 1 ( read $end
$var wire 1 . reset $end
$var wire 1 * write $end
$var reg 8 / ReadData [7:0] $end
$var reg 1 # ReadReady $end
$var reg 1 " WriteReady $end
$upscope $end
$upscope $end
$enddefinitions $end
#0
$dumpvars
bx /
z.
b0 -
b0 ,
b0 +
x*
1)
x(
0'
b0 &
b0 %
b0 $
x#
x"
bx !
$end
#41670
1#
1"
0(
0*
1'
#50000
0)
#83340
0'
#125010
b1 $
b1 +
b10010010 &
b10010010 -
b1 %
b1 ,
1(
1*
1'
#166680
0'
#208350
b0x !
b1 /
b10 $
b10 +
b1000000 &
b1000000 -
b10 %
b10 ,
0#
0"
1(
1*
1'
#250020
0'
#291690
b11 $
b11 +
b100 &
b100 -
b11 %
b11 ,
1(
1*
1#
1"
1'
#333360
0'
#375030
b0xx !
b11 /
b100 $
b100 +
b110001 &
b110001 -
b100 %
b100 ,
0#
0"
1(
1*
1'
#416700
0'
#458370
b101 $
b101 +
b10000110 &
b10000110 -
b101 %
b101 ,
1(
1*
1#
1"
1'
#500040
0'
#541710
b0x0x !
b101 /
b110 $
b110 +
b11000110 &
b11000110 -
b110 %
b110 ,
0#
0"
1(
1*
1'
#583380
0'
#625050
b111 $
b111 +
b110010 &
b110010 -
b111 %
b111 ,
1(
1*
1#
1"
1'
#666720
0'
#708390
b0xxx !
b111 /
b1000 $
b1000 +
b1001 &
b1001 -
b1000 %
b1000 ,
0#
0"
1(
1*
1'
#750060
0'
#791730
b1001 $
b1001 +
b10000000 &
b10000000 -
b1001 %
b1001 ,
1(
1*
1#
1"
1'
#833400
0'
#875070
bx0xxx00x !
b10111001 /
b1010 $
b1010 +
b10000110 &
b10000110 -
b1010 %
b1010 ,
0#
0"
1(
1*
1'
#916740
0'
#958410
b1011 $
b1011 +
b10111011 &
b10111011 -
b1011 %
b1011 ,
1(
1*
1#
1"
1'
#1000080
0'
#1041750
bx0xxx0xx !
b10111011 /
b1100 $
b1100 +
b10011110 &
b10011110 -
b1100 %
b1100 ,
0#
0"
1(
1*
1'
#1083420
0'
#1125090
b1101 $
b1101 +
b11110110 &
b11110110 -
b1101 %
b1101 ,
1(
1*
1#
1"
1'
#1166760
0'
#1208430
bx0xxxx0x !
b10111101 /
b1110 $
b1110 +
b11000110 &
b11000110 -
b1110 %
b1110 ,
0#
0"
1(
1*
1'
#1250100
0'
#1291770
b1111 $
b1111 +
b11111100 &
b11111100 -
b1111 %
b1111 ,
1(
1*
1#
1"
1'
#1333440
0'
#1375110
bx0xxxxxx !
b10111111 /
b0 $
b0 +
b1100011 &
b1100011 -
b0 %
b0 ,
0#
0"
1(
1*
1'
#1416780
0'
#1458450
b1 $
b1 +
b1100010 &
b1100010 -
b1 %
b1 ,
1(
1*
1#
1"
1'
#1500120
0'
#1541790
bx00x00x0 !
b10010010 /
b10 $
b10 +
b1010101 &
b1010101 -
b10 %
b10 ,
0#
0"
1(
1*
1'
#1583460
0'
#1625130
b11 $
b11 +
b11110010 &
b11110010 -
b11 %
b11 ,
1(
1*
1#
1"
1'
#1666800
0'
#1708470
b0x00 !
b100 /
b100 $
b100 +
b111011 &
b111011 -
b100 %
b100 ,
0#
0"
1(
1*
1'
#1750140
0'
#1791810
b101 $
b101 +
b1001 &
b1001 -
b101 %
b101 ,
1(
1*
1#
1"
1'
#1833480
0'
#1875150
bx0000xx0 !
b10000110 /
b110 $
b110 +
b11000111 &
b11000111 -
b110 %
b110 ,
0#
0"
1(
1*
1'
#1916820
0'
#1958490
b111 $
b111 +
b11111001 &
b11111001 -
b111 %
b111 ,
1(
1*
1#
1"
1'
#2000160
0'
#2041830
b0xx00x0 !
b110010 /
b1000 $
b1000 +
b1100111 &
b1100111 -
b1000 %
b1000 ,
0#
0"
1(
1*
1'
#2083500
0'
#2125170
b1001 $
b1001 +
b1110100 &
b1110100 -
b1001 %
b1001 ,
1(
1*
1#
1"
1'
#2166840
0'
#2208510
bx0000000 !
b10000000 /
b1010 $
b1010 +
b1100010 &
b1100010 -
b1010 %
b1010 ,
0#
0"
1(
1*
1'
#2250180
0'
#2291850
b1011 $
b1011 +
b10101110 &
b10101110 -
b1011 %
b1011 ,
1(
1*
1#
1"
1'
#2333520
0'
#2375190
bx0xxx0xx !
b10111011 /
b1100 $
b1100 +
b1011110 &
b1011110 -
b1100 %
b1100 ,
0#
0"
1(
1*
1'
#2416860
0'
#2458530
b1101 $
b1101 +
b10110 &
b10110 -
b1101 %
b1101 ,
1(
1*
1#
1"
1'
#2500200
0'
#2541870
bx0xx0 !
b11110110 /
b1110 $
b1110 +
b110010 &
b110010 -
b1110 %
b1110 ,
0#
0"
1(
1*
1'
#2583540
0'
#2625210
b1111 $
b1111 +
b110001 &
b110001 -
b1111 %
b1111 ,
1(
1*
1#
1"
1'
#2666880
0'
#2708550
bx00 !
b11111100 /
b0 $
b0 +
b10000101 &
b10000101 -
b0 %
b0 ,
0#
0"
1(
1*
1'
#2750220
0'
#2791890
b1 $
b1 +
b1000000 &
b1000000 -
b1 %
b1 ,
1(
1*
1#
1"
1'
#2833560
0'
#2875230
b0xx000x0 !
b1100010 /
b10 $
b10 +
b10010000 &
b10010000 -
b10 %
b10 ,
0#
0"
1(
1*
1'
#2916900
0'
#2958570
b11 $
b11 +
b11010101 &
b11010101 -
b11 %
b11 ,
1(
1*
1#
1"
1'
#3000240
0'
#3041910
bx00x0 !
b11110010 /
b100 $
b100 +
b1001110 &
b1001110 -
b100 %
b100 ,
0#
0"
1(
1*
1'
#3083580
0'
#3125250
b101 $
b101 +
b1001011 &
b1001011 -
b101 %
b101 ,
1(
1*
1#
1"
1'
#3166920
0'
#3208590
b0x00x !
b1001 /
b110 $
b110 +
b1001 &
b1001 -
b110 %
b110 ,
0#
0"
1(
1*
1'
#3250260
0'
#3291930
b111 $
b111 +
b110 &
b110 -
b111 %
b111 ,
1(
1*
1#
1"
1'
#3333600
0'
#3375270
bx00x !
b11111001 /
b1000 $
b1000 +
b101001 &
b101001 -
b1000 %
b1000 ,
0#
0"
1(
1*
1'
#3416940
0'
#3458610
b1001 $
b1001 +
b10110101 &
b10110101 -
b1001 %
b1001 ,
1(
1*
1#
1"
1'
#3500280
0'
#3541950
b0xxx0x00 !
b1110100 /
b1010 $
b1010 +
b1101010 &
b1101010 -
b1010 %
b1010 ,
0#
0"
1(
1*
1'
#3583620
0'
#3625290
b1011 $
b1011 +
b1 &
b1 -
b1011 %
b1011 ,
1(
1*
1#
1"
1'
#3666960
0'
#3708630
bx0x0xxx0 !
b10101110 /
b1100 $
b1100 +
b1010111 &
b1010111 -
b1100 %
b1100 ,
0#
0"
1(
1*
1'
#3750300
0'
#3791970
b1101 $
b1101 +
b10001110 &
b10001110 -
b1101 %
b1101 ,
1(
1*
1#
1"
1'
#3833640
0'
#3875310
b0x0xx0 !
b10110 /
b1110 $
b1110 +
b1100111 &
b1100111 -
b1110 %
b1110 ,
0#
0"
1(
1*
1'
#3916980
0'
#3958650
b1111 $
b1111 +
b10010001 &
b10010001 -
b1111 %
b1111 ,
1(
1*
1#
1"
1'
#4000320
0'
#4041990
b0xx000x !
b110001 /
b0 $
b0 +
b10000101 &
b10000101 -
b0 %
b0 ,
0#
0"
1(
1*
1'
#4083660
0'
#4125330
b1 $
b1 +
b1100101 &
b1100101 -
b1 %
b1 ,
1(
1*
1#
1"
1'
#4167000
0'
#4208670
b0x000000 !
b1000000 /
b10 $
b10 +
b11110 &
b11110 -
b10 %
b10 ,
0#
0"
1(
1*
1'
#4250340
0'
#4292010
b11 $
b11 +
b11111001 &
b11111001 -
b11 %
b11 ,
1(
1*
1#
1"
1'
#4333680
0'
#4375350
bx0x0x0x !
b11010101 /
b100 $
b100 +
b11000101 &
b11000101 -
b100 %
b100 ,
0#
0"
1(
1*
1'
#4417020
0'
#4458690
b101 $
b101 +
b10100000 &
b10100000 -
b101 %
b101 ,
1(
1*
1#
1"
1'
#4500360
0'
#4542030
b0x00x0xx !
b1001011 /
b110 $
b110 +
b1101100 &
b1101100 -
b110 %
b110 ,
0#
0"
1(
1*
1'
#4583700
0'
#4625370
b111 $
b111 +
b10111100 &
b10111100 -
b111 %
b111 ,
1(
1*
1#
1"
1'
#4667040
0'
#4708710
b0xx0 !
b110 /
b1000 $
b1000 +
b1000100 &
b1000100 -
b1000 %
b1000 ,
0#
0"
1(
1*
1'
#4750380
0'
#4792050
b1001 $
b1001 +
b11110101 &
b11110101 -
b1001 %
b1001 ,
1(
1*
1#
1"
1'
#4833720
0'
#4875390
bx0xx0x0x !
b10110101 /
b1010 $
b1010 +
b11011011 &
b11011011 -
b1010 %
b1010 ,
0#
0"
1(
1*
1'
#4917060
0'
#4958730
b1011 $
b1011 +
b11100011 &
b11100011 -
b1011 %
b1011 ,
1(
1*
1#
1"
1'
#5000400
0'
#5042070
b0x !
b1 /
b1100 $
b1100 +
b11010111 &
b11010111 -
b1100 %
b1100 ,
0#
0"
1(
1*
1'
#5083740
0'
#5125410
b1101 $
b1101 +
b1011110 &
b1011110 -
b1101 %
b1101 ,
1(
1*
1#
1"
1'
#5167080
0'
#5208750
bx000xxx0 !
b10001110 /
b1110 $
b1110 +
b10010101 &
b10010101 -
b1110 %
b1110 ,
0#
0"
1(
1*
1'
#5250420
0'
#5292090
b1111 $
b1111 +
b101 &
b101 -
b1111 %
b1111 ,
1(
1*
1#
1"
1'
#5333760
0'
#5375430
bx00x000x !
b10010001 /
b0 $
b0 +
b111000 &
b111000 -
b0 %
b0 ,
0#
0"
1(
1*
1'
#5417100
0'
#5458770
b1 $
b1 +
b11000010 &
b11000010 -
b1 %
b1 ,
1(
1*
1#
1"
1'
#5500440
0'
#5542110
b0xx00x0x !
b1100101 /
b10 $
b10 +
b10100111 &
b10100111 -
b10 %
b10 ,
0#
0"
1(
1*
1'
#5583780
0'
#5625450
b11 $
b11 +
b11101 &
b11101 -
b11 %
b11 ,
1(
1*
1#
1"
1'
#5667120
0'
#5708790
bx00x !
b11111001 /
b100 $
b100 +
b10011101 &
b10011101 -
b100 %
b100 ,
0#
0"
1(
1*
1'
#5750460
0'
#5792130
b101 $
b101 +
b111111 &
b111111 -
b101 %
b101 ,
1(
1*
1#
1"
1'
#5833800
0'
#5875470
bx0x00000 !
b10100000 /
b110 $
b110 +
b10001010 &
b10001010 -
b110 %
b110 ,
0#
0"
1(
1*
1'
#5917140
0'
#5958810
b111 $
b111 +
b11111000 &
b11111000 -
b111 %
b111 ,
1(
1*
1#
1"
1'
#6000480
0'
#6042150
bx0xxxx00 !
b10111100 /
b1000 $
b1000 +
b11101100 &
b11101100 -
b1000 %
b1000 ,
0#
0"
1(
1*
1'
#6083820
0'
#6125490
b1001 $
b1001 +
b10110001 &
b10110001 -
b1001 %
b1001 ,
1(
1*
1#
1"
1'
#6167160
0'
#6208830
bx0x0x !
b11110101 /
b1010 $
b1010 +
b10100110 &
b10100110 -
b1010 %
b1010 ,
0#
0"
1(
1*
1'
#6250500
0'
#6292170
b1011 $
b1011 +
b11001111 &
b11001111 -
b1011 %
b1011 ,
1(
1*
1#
1"
1'
#6333840
0'
#6375510
bx000xx !
b11100011 /
b1100 $
b1100 +
b11000111 &
b11000111 -
b1100 %
b1100 ,
0#
0"
1(
1*
1'
#6417180
0'
#6458850
b1101 $
b1101 +
b11111100 &
b11111100 -
b1101 %
b1101 ,
1(
1*
1#
1"
1'
#6500520
0'
#6542190
b0x0xxxx0 !
b1011110 /
b1110 $
b1110 +
b1011011 &
b1011011 -
b1110 %
b1110 ,
0#
0"
1(
1*
1'
#6583860
0'
#6625530
b1111 $
b1111 +
b1001111 &
b1001111 -
b1111 %
b1111 ,
1(
1*
1#
1"
1'
#6667200
0'
#6708870
b0x0x !
b101 /
b0 $
b0 +
b101110 &
b101110 -
b0 %
b0 ,
0#
0"
1(
1*
1'
#6750540
0'
#6792210
b1 $
b1 +
b101101 &
b101101 -
b1 %
b1 ,
1(
1*
1#
1"
1'
#6833880
0'
#6875550
bx0000x0 !
b11000010 /
b10 $
b10 +
b11000100 &
b11000100 -
b10 %
b10 ,
0#
0"
1(
1*
1'
#6917220
0'
#6958890
b11 $
b11 +
b100100 &
b100100 -
b11 %
b11 ,
1(
1*
1#
1"
1'
#7000560
0'
#7042230
b0xxx0x !
b11101 /
b100 $
b100 +
b1101000 &
b1101000 -
b100 %
b100 ,
0#
0"
1(
1*
1'
#7083900
0'
#7125570
b101 $
b101 +
b1101011 &
b1101011 -
b101 %
b101 ,
1(
1*
1#
1"
1'
#7167240
0'
#7208910
b0xxxxxx !
b111111 /
b110 $
b110 +
b101000 &
b101000 -
b110 %
b110 ,
0#
0"
1(
1*
1'
#7250580
0'
#7292250
b111 $
b111 +
b11001011 &
b11001011 -
b111 %
b111 ,
1(
1*
1#
1"
1'
#7333920
0'
#7375590
bx000 !
b11111000 /
b1000 $
b1000 +
b10000110 &
b10000110 -
b1000 %
b1000 ,
0#
0"
1(
1*
1'
#7417260
0'
#7458930
b1001 $
b1001 +
b1100001 &
b1100001 -
b1001 %
b1001 ,
1(
1*
1#
1"
1'
#7500600
0'
#7542270
bx0xx000x !
b10110001 /
b1010 $
b1010 +
b11100100 &
b11100100 -
b1010 %
b1010 ,
0#
0"
1(
1*
1'
#7583940
0'
#7625610
b1011 $
b1011 +
b111011 &
b111011 -
b1011 %
b1011 ,
1(
1*
1#
1"
1'
#7667280
0'
#7708950
bx00xxxx !
b11001111 /
b1100 $
b1100 +
b10011110 &
b10011110 -
b1100 %
b1100 ,
0#
0"
1(
1*
1'
#7750620
0'
#7792290
b1101 $
b1101 +
b10001001 &
b10001001 -
b1101 %
b1101 ,
1(
1*
1#
1"
1'
#7833960
0'
#7875630
bx00 !
b11111100 /
b1110 $
b1110 +
b111111 &
b111111 -
b1110 %
b1110 ,
0#
0"
1(
1*
1'
#7917300
0'
#7958970
b1111 $
b1111 +
b10110110 &
b10110110 -
b1111 %
b1111 ,
1(
1*
1#
1"
1'
#8000640
0'
#8042310
b0x00xxxx !
b1001111 /
b0 $
b0 +
b10011100 &
b10011100 -
b0 %
b0 ,
0#
0"
1(
1*
1'
#8083980
0'
#8125650
b1 $
b1 +
b10001111 &
b10001111 -
b1 %
b1 ,
1(
1*
1#
1"
1'
#8167320
0'
#8208990
b0x0xx0x !
b101101 /
b10 $
b10 +
b1101001 &
b1101001 -
b10 %
b10 ,
0#
0"
1(
1*
1'
#8250660
0'
#8292330
b11 $
b11 +
b11000010 &
b11000010 -
b11 %
b11 ,
1(
1*
1#
1"
1'
#8334000
0'
#8375670
b0x00x00 !
b100100 /
b100 $
b100 +
b111100 &
b111100 -
b100 %
b100 ,
0#
0"
1(
1*
1'
#8417340
0'
#8459010
b101 $
b101 +
b10101101 &
b10101101 -
b101 %
b101 ,
1(
1*
1#
1"
1'
#8500680
0'
#8542350
b0xx0x0xx !
b1101011 /
b110 $
b110 +
b10100100 &
b10100100 -
b110 %
b110 ,
0#
0"
1(
1*
1'
#8584020
0'
#8625690
b111 $
b111 +
b11111 &
b11111 -
b111 %
b111 ,
1(
1*
1#
1"
1'
#8667360
0'
#8709030
bx00x0xx !
b11001011 /
b1000 $
b1000 +
b10010101 &
b10010101 -
b1000 %
b1000 ,
0#
0"
1(
1*
1'
#8750700
0'
#8792370
b1001 $
b1001 +
b10101100 &
b10101100 -
b1001 %
b1001 ,
1(
1*
1#
1"
1'
#8834040
0'
#8875710
b0xx0000x !
b1100001 /
b1010 $
b1010 +
b1000011 &
b1000011 -
b1010 %
b1010 ,
0#
0"
1(
1*
1'
#8917380
0'
#8959050
b1011 $
b1011 +
b1000111 &
b1000111 -
b1011 %
b1011 ,
1(
1*
1#
1"
1'
#9000720
0'
#9042390
b0xxx0xx !
b111011 /
b1100 $
b1100 +
b1001110 &
b1001110 -
b1100 %
b1100 ,
0#
0"
1(
1*
1'
#9084060
0'
#9125730
b1101 $
b1101 +
b11111101 &
b11111101 -
b1101 %
b1101 ,
1(
1*
1#
1"
1'
#9167400
0'
#9209070
bx000x00x !
b10001001 /
b1110 $
b1110 +
b10011 &
b10011 -
b1110 %
b1110 ,
0#
0"
1(
1*
1'
#9250740
0'
#9292410
b1111 $
b1111 +
b10111001 &
b10111001 -
b1111 %
b1111 ,
1(
1*
1#
1"
1'
#9334080
0'
#9375750
bx0xx0xx0 !
b10110110 /
b0 $
b0 +
b1010001 &
b1010001 -
b0 %
b0 ,
0#
0"
1(
1*
1'
#9417420
0'
#9459090
b1 $
b1 +
b10111 &
b10111 -
b1 %
b1 ,
1(
1*
1#
1"
1'
#9500760
0'
#9542430
bx000xxxx !
b10001111 /
b10 $
b10 +
b1011001 &
b1011001 -
b10 %
b10 ,
0#
0"
1(
1*
1'
#9584100
0'
#9625770
b11 $
b11 +
b101111 &
b101111 -
b11 %
b11 ,
1(
1*
1#
1"
1'
#9667440
0'
#9709110
bx0000x0 !
b11000010 /
b100 $
b100 +
b10100010 &
b10100010 -
b100 %
b100 ,
0#
0"
1(
1*
1'
#9750780
0'
#9792450
b101 $
b101 +
b11111011 &
b11111011 -
b101 %
b101 ,
1(
1*
1#
1"
1'
#9834120
0'
#9875790
bx0x0xx0x !
b10101101 /
b110 $
b110 +
b1100101 &
b1100101 -
b110 %
b110 ,
0#
0"
1(
1*
1'
#9917460
0'
#9959130
b111 $
b111 +
b1110011 &
b1110011 -
b111 %
b111 ,
1(
1*
1#
1"
1'
#10000800
0'
#10042470
b0xxxxx !
b11111 /
b1000 $
b1000 +
b10101101 &
b10101101 -
b1000 %
b1000 ,
0#
0"
1(
1*
1'
#10084140
0'
#10125810
b1001 $
b1001 +
b10010100 &
b10010100 -
b1001 %
b1001 ,
1(
1*
1#
1"
1'
#10167480
0'
#10209150
bx0x0xx00 !
b10101100 /
b1010 $
b1010 +
b1110110 &
b1110110 -
b1010 %
b1010 ,
0#
0"
1(
1*
1'
#10250820
0'
#10292490
b1011 $
b1011 +
b1101101 &
b1101101 -
b1011 %
b1011 ,
1(
1*
1#
1"
1'
#10334160
0'
#10375830
b0x000xxx !
b1000111 /
b1100 $
b1100 +
b110010 &
b110010 -
b1100 %
b1100 ,
0#
0"
1(
1*
1'
#10417500
0'
#10459170
b1101 $
b1101 +
b1011010 &
b1011010 -
b1101 %
b1101 ,
1(
1*
1#
1"
1'
#10500840
0'
#10542510
bx0x !
b11111101 /
b1110 $
b1110 +
b1101111 &
b1101111 -
b1110 %
b1110 ,
0#
0"
1(
1*
1'
#10584180
0'
#10625850
b1111 $
b1111 +
b10111100 &
b10111100 -
b1111 %
b1111 ,
1(
1*
1#
1"
1'
#10667520
0'
#10709190
bx0xxx00x !
b10111001 /
b0 $
b0 +
b10100010 &
b10100010 -
b0 %
b0 ,
0#
0"
1(
1*
1'
#10750860
0'
#10792530
b1 $
b1 +
b1101000 &
b1101000 -
b1 %
b1 ,
1(
1*
1#
1"
1'
#10834200
0'
#10875870
b0x0xxx !
b10111 /
b10 $
b10 +
b10010101 &
b10010101 -
b10 %
b10 ,
0#
0"
1(
1*
1'
#10917540
0'
#10959210
b11 $
b11 +
b11010101 &
b11010101 -
b11 %
b11 ,
1(
1*
1#
1"
1'
#11000880
0'
#11042550
b0x0xxxx !
b101111 /
b100 $
b100 +
b10000111 &
b10000111 -
b100 %
b100 ,
0#
0"
1(
1*
1'
#11084220
0'
#11125890
b101 $
b101 +
b11101110 &
b11101110 -
b101 %
b101 ,
1(
1*
1#
1"
1'
#11167560
0'
#11209230
bx0xx !
b11111011 /
b110 $
b110 +
b1001101 &
b1001101 -
b110 %
b110 ,
0#
0"
1(
1*
1'
#11250900
0'
#11292570
b111 $
b111 +
b1111110 &
b1111110 -
b111 %
b111 ,
1(
1*
1#
1"
1'
#11334240
0'
#11375910
b0xxx00xx !
b1110011 /
b1000 $
b1000 +
b1100001 &
b1100001 -
b1000 %
b1000 ,
0#
0"
1(
1*
1'
#11417580
0'
#11459250
b1001 $
b1001 +
b10101011 &
b10101011 -
b1001 %
b1001 ,
1(
1*
1#
1"
1'
#11500920
0'
#11542590
bx00x0x00 !
b10010100 /
b1010 $
b1010 +
b10100111 &
b10100111 -
b1010 %
b1010 ,
0#
0"
1(
1*
1'
#11584260
0'
#11625930
b1011 $
b1011 +
b110011 &
b110011 -
b1011 %
b1011 ,
1(
1*
1#
1"
1'
#11667600
0'
#11709270
b0xx0xx0x !
b1101101 /
b1100 $
b1100 +
b101 &
b101 -
b1100 %
b1100 ,
0#
0"
1(
1*
1'
#11750940
0'
#11792610
b1101 $
b1101 +
b11011011 &
b11011011 -
b1101 %
b1101 ,
1(
1*
1#
1"
1'
#11834280
0'
#11875950
b0x0xx0x0 !
b1011010 /
b1110 $
b1110 +
b11100 &
b11100 -
b1110 %
b1110 ,
0#
0"
1(
1*
1'
#11917620
0'
#11959290
b1111 $
b1111 +
b10111100 &
b10111100 -
b1111 %
b1111 ,
1(
1*
1#
1"
1'
#12000960
0'
#12042630
bx0xxxx00 !
b10111100 /
b0 $
b0 +
b1011100 &
b1011100 -
b0 %
b0 ,
0#
0"
1(
1*
1'
#12084300
0'
#12125970
b1 $
b1 +
b11001010 &
b11001010 -
b1 %
b1 ,
1(
1*
1#
1"
1'
#12167640
0'
#12209310
b0xx0x000 !
b1101000 /
b10 $
b10 +
b11001001 &
b11001001 -
b10 %
b10 ,
0#
0"
1(
1*
1'
#12250980
0'
#12292650
b11 $
b11 +
b10 &
b10 -
b11 %
b11 ,
1(
1*
1#
1"
1'
#12334320
0'
#12375990
bx0x0x0x !
b11010101 /
b100 $
b100 +
b101100 &
b101100 -
b100 %
b100 ,
0#
0"
1(
1*
1'
#12417660
0'
#12459330
b101 $
b101 +
b11101101 &
b11101101 -
b101 %
b101 ,
1(
1*
1#
1"
1'
#12501000
0'
#12542670
bx0xxx0 !
b11101110 /
b110 $
b110 +
b100110 &
b100110 -
b110 %
b110 ,
0#
0"
1(
1*
1'
#12584340
0'
#12626010
b111 $
b111 +
b11101100 &
b11101100 -
b111 %
b111 ,
1(
1*
1#
1"
1'
#12667680
0'
#12709350
b0xxxxxx0 !
b1111110 /
b1000 $
b1000 +
b110110 &
b110110 -
b1000 %
b1000 ,
0#
0"
1(
1*
1'
#12751020
0'
#12792690
b1001 $
b1001 +
b111011 &
b111011 -
b1001 %
b1001 ,
1(
1*
1#
1"
1'
#12834360
0'
#12876030
bx0x0x0xx !
b10101011 /
b1010 $
b1010 +
b11100101 &
b11100101 -
b1010 %
b1010 ,
0#
0"
1(
1*
1'
#12917700
0'
#12959370
b1011 $
b1011 +
b11011011 &
b11011011 -
b1011 %
b1011 ,
1(
1*
1#
1"
1'
#13001040
0'
#13042710
b0xx00xx !
b110011 /
b1100 $
b1100 +
b11001010 &
b11001010 -
b1100 %
b1100 ,
0#
0"
1(
1*
1'
#13084380
0'
#13126050
b1101 $
b1101 +
b100011 &
b100011 -
b1101 %
b1101 ,
1(
1*
1#
1"
1'
#13167720
0'
#13209390
bx0xx0xx !
b11011011 /
b1110 $
b1110 +
b10000010 &
b10000010 -
b1110 %
b1110 ,
0#
0"
1(
1*
1'
#13251060
0'
#13292730
b1111 $
b1111 +
b11111011 &
b11111011 -
b1111 %
b1111 ,
1(
1*
1#
1"
1'
#13334400
0'
#13376070
bx0xxxx00 !
b10111100 /
b0 $
b0 +
b10110100 &
b10110100 -
b0 %
b0 ,
0#
0"
1(
1*
1'
#13417740
0'
#13459410
b1 $
b1 +
b1011010 &
b1011010 -
b1 %
b1 ,
1(
1*
1#
1"
1'
#13501080
0'
#13542750
bx00x0x0 !
b11001010 /
b10 $
b10 +
b11000100 &
b11000100 -
b10 %
b10 ,
0#
0"
1(
1*
1'
#13584420
0'
#13626090
b11 $
b11 +
b10010100 &
b10010100 -
b11 %
b11 ,
1(
1*
1#
1"
1'
#13667760
0'
#13709430
b0x0 !
b10 /
b100 $
b100 +
b10110 &
b10110 -
b100 %
b100 ,
0#
0"
1(
1*
1'
#13751100
0'
#13792770
b101 $
b101 +
b1100011 &
b1100011 -
b101 %
b101 ,
1(
1*
1#
1"
1'
#13834440
0'
#13876110
bx0xx0x !
b11101101 /
b110 $
b110 +
b10111 &
b10111 -
b110 %
b110 ,
0#
0"
1(
1*
1'
#13917780
0'
#13959450
b111 $
b111 +
b100 &
b100 -
b111 %
b111 ,
1(
1*
1#
1"
1'
#14001120
0'
#14042790
bx0xx00 !
b11101100 /
b1000 $
b1000 +
b10001110 &
b10001110 -
b1000 %
b1000 ,
0#
0"
1(
1*
1'
#14084460
0'
#14126130
b1001 $
b1001 +
b1111110 &
b1111110 -
b1001 %
b1001 ,
1(
1*
1#
1"
1'
#14167800
0'
#14209470
b0xxx0xx !
b111011 /
b1010 $
b1010 +
b10010100 &
b10010100 -
b1010 %
b1010 ,
0#
0"
1(
1*
1'
#14251140
0'
#14292810
b1011 $
b1011 +
b1110 &
b1110 -
b1011 %
b1011 ,
1(
1*
1#
1"
1'
#14334480
0'
#14376150
bx0xx0xx !
b11011011 /
b1100 $
b1100 +
b11000011 &
b11000011 -
b1100 %
b1100 ,
0#
0"
1(
1*
1'
#14417820
0'
#14459490
b1101 $
b1101 +
b1101101 &
b1101101 -
b1101 %
b1101 ,
1(
1*
1#
1"
1'
#14501160
0'
#14542830
b0x000xx !
b100011 /
b1110 $
b1110 +
b11110 &
b11110 -
b1110 %
b1110 ,
0#
0"
1(
1*
1'
#14584500
0'
#14626170
b1111 $
b1111 +
b10110011 &
b10110011 -
b1111 %
b1111 ,
1(
1*
1#
1"
1'
#14667840
0'
#14709510
bx0xx !
b11111011 /
b0 $
b0 +
b111000 &
b111000 -
b0 %
b0 ,
0#
0"
1(
1*
1'
#14751180
0'
#14792850
b1 $
b1 +
b111001 &
b111001 -
b1 %
b1 ,
1(
1*
1#
1"
1'
#14834520
0'
#14876190
b0x0xx0x0 !
b1011010 /
b10 $
b10 +
b11011101 &
b11011101 -
b10 %
b10 ,
0#
0"
1(
1*
1'
#14917860
0'
#14959530
b11 $
b11 +
b10101111 &
b10101111 -
b11 %
b11 ,
1(
1*
1#
1"
1'
#15001200
0'
#15042870
bx00x0x00 !
b10010100 /
b100 $
b100 +
b11111101 &
b11111101 -
b100 %
b100 ,
0#
0"
1(
1*
1'
#15084540
0'
#15126210
b101 $
b101 +
b11101010 &
b11101010 -
b101 %
b101 ,
1(
1*
1#
1"
1'
#15167880
0'
#15209550
b0xx000xx !
b1100011 /
b110 $
b110 +
b1101 &
b1101 -
b110 %
b110 ,
0#
0"
1(
1*
1'
#15251220
0'
#15292890
b111 $
b111 +
b1011100 &
b1011100 -
b111 %
b111 ,
1(
1*
1#
1"
1'
#15334560
0'
#15376230
b0x00 !
b100 /
b1000 $
b1000 +
b10011011 &
b10011011 -
b1000 %
b1000 ,
0#
0"
1(
1*
1'
#15417900
0'
#15459570
b1001 $
b1001 +
b11001011 &
b11001011 -
b1001 %
b1001 ,
1(
1*
1#
1"
1'
#15501240
0'
#15542910
b0xxxxxx0 !
b1111110 /
b1010 $
b1010 +
b11100000 &
b11100000 -
b1010 %
b1010 ,
0#
0"
1(
1*
1'
#15584580
0'
#15626250
b1011 $
b1011 +
b10010011 &
b10010011 -
b1011 %
b1011 ,
1(
1*
1#
1"
1'
#15667920
0'
#15709590
b0xxx0 !
b1110 /
b1100 $
b1100 +
b1011011 &
b1011011 -
b1100 %
b1100 ,
0#
0"
1(
1*
1'
#15751260
0'
#15792930
b1101 $
b1101 +
b10111110 &
b10111110 -
b1101 %
b1101 ,
1(
1*
1#
1"
1'
#15834600
0'
#15876270
b0xx0xx0x !
b1101101 /
b1110 $
b1110 +
b11101110 &
b11101110 -
b1110 %
b1110 ,
0#
0"
1(
1*
1'
#15917940
0'
#15959610
b1111 $
b1111 +
b11000011 &
b11000011 -
b1111 %
b1111 ,
1(
1*
1#
1"
1'
#16001280
0'
#16042950
bx0xx00xx !
b10110011 /
b0 $
b0 +
b10111100 &
b10111100 -
b0 %
b0 ,
0#
0"
1(
1*
1'
#16084620
0'
#16126290
b1 $
b1 +
b10111111 &
b10111111 -
b1 %
b1 ,
1(
1*
1#
1"
1'
#16167960
0'
#16209630
b0xxx00x !
b111001 /
b10 $
b10 +
b1101101 &
b1101101 -
b10 %
b10 ,
0#
0"
1(
1*
1'
#16251300
0'
#16292970
b11 $
b11 +
b1100111 &
b1100111 -
b11 %
b11 ,
1(
1*
1#
1"
1'
#16334640
0'
#16376310
bx0x0xxxx !
b10101111 /
b100 $
b100 +
b10111100 &
b10111100 -
b100 %
b100 ,
0#
0"
1(
1*
1'
#16417980
0'
#16459650
b101 $
b101 +
b1111101 &
b1111101 -
b101 %
b101 ,
1(
1*
1#
1"
1'
#16501320
0'
#16542990
bx0x0x0 !
b11101010 /
b110 $
b110 +
b110000 &
b110000 -
b110 %
b110 ,
0#
0"
1(
1*
1'
#16584660
0'
#16626330
b111 $
b111 +
b10001011 &
b10001011 -
b111 %
b111 ,
1(
1*
1#
1"
1'
#16668000
0'
#16709670
b0x0xxx00 !
b1011100 /
b1000 $
b1000 +
b1010000 &
b1010000 -
b1000 %
b1000 ,
0#
0"
1(
1*
1'
#16751340
0'
